{
  "success": "success",
  "code": 200,
  "msg": "成功",
  "data": {
    "total": 16,
    "per_page": 10,
    "current_page": 1,
    "last_page": 2,
    "data": [
      {
        "id": 1,
        "uid": 1,
        "money": "30.00",
        "type": 2,
        "info": "下单｜202306201525｜从账户扣除30",
        "after_change_money": "10.00",
        "before_change_money": null,
        "create_time": "2024-06-20 15:23:54",
        "account": "qwer",
        "nickname": "xixi"
      },
      {
        "id": 2,
        "uid": 2,
        "money": "30.00",
        "type": 2,
        "info": "下单｜202306201525｜从账户扣除30",
        "after_change_money": "20.00",
        "before_change_money": null,
        "create_time": "2024-06-20 15:23:54",
        "account": "asdf",
        "nickname": "dd"
      },
      {
        "id": 4,
        "uid": 1,
        "money": "10.00",
        "type": 2,
        "info": "账户提现｜11|账户扣除金额:10.00|手续费:1.00|实际到账:9.00",
        "after_change_money": "0.00",
        "before_change_money": null,
        "create_time": "2024-06-20 17:41:46",
        "account": "qwer",
        "nickname": "xixi"
      },
      {
        "id": 5,
        "uid": 1,
        "money": "10.00",
        "type": 2,
        "info": "账户提现｜11|账户扣除金额:10.00|手续费:1.00|实际到账:9.00",
        "after_change_money": "10.00",
        "before_change_money": null,
        "create_time": "2024-06-20 17:50:12",
        "account": "qwer",
        "nickname": "xixi"
      },
      {
        "id": 6,
        "uid": 1,
        "money": "10.00",
        "type": 2,
        "info": "账户充值｜2024062016010001|账户增加金额:10.00",
        "after_change_money": "100.00",
        "before_change_money": null,
        "create_time": "2024-06-20 17:53:02",
        "account": "qwer",
        "nickname": "xixi"
      },
      {
        "id": 7,
        "uid": 1,
        "money": "10.00",
        "type": 2,
        "info": "账户充值｜2024062016010001|账户增加金额:10.00",
        "after_change_money": "90.00",
        "before_change_money": null,
        "create_time": "2024-06-20 17:56:59",
        "account": "qwer",
        "nickname": "xixi"
      },
      {
        "id": 8,
        "uid": 1,
        "money": "10.00",
        "type": 2,
        "info": "账户充值｜2024062016010001|账户增加金额:10.00",
        "after_change_money": "80.00",
        "before_change_money": null,
        "create_time": "2024-06-20 17:57:14",
        "account": "qwer",
        "nickname": "xixi"
      },
      {
        "id": 9,
        "uid": 1,
        "money": "10.00",
        "type": 2,
        "info": "账户充值｜2024062016010001|账户增加金额:10.00",
        "after_change_money": "70.00",
        "before_change_money": null,
        "create_time": "2024-06-20 17:59:12",
        "account": "qwer",
        "nickname": "xixi"
      },
      {
        "id": 10,
        "uid": 1,
        "money": "10.00",
        "type": 1,
        "info": "账户充值｜2024062016010001|账户增加金额:10.00",
        "after_change_money": "60.00",
        "before_change_money": null,
        "create_time": "2024-06-20 18:01:58",
        "account": "qwer",
        "nickname": "xixi"
      },
      {
        "id": 11,
        "uid": 1,
        "money": "100.00",
        "type": 1,
        "info": "后台操作｜管理员账号:|名称:|账户增加 金额:100",
        "after_change_money": "170.00",
        "before_change_money": "70.00",
        "create_time": "2024-06-21 11:18:36",
        "account": "qwer",
        "nickname": "xixi"
      }
    ]
  }
}
